3

0
0.000000
0.000000
0.000000
0.000000
0.000000
0.000000
0.000000
0.000000
0.500000
0.000000
0.000000
0.000000
0.500000
0.000000
0.000000
0.000000
0.000000
0.000000
0.000000
0.000000
0.000000
0.000000
0.000000
0.000000
0.000000
0.000000
0.000000

1
0.200000
0.000000
0.000000
0.000000
0.000000
0.000000
0.000000
28.000000
0.500000
45.000000
45.000000
0.000000
0.500000
45.000000
0.000000
0.000000
0.000000
45.000000
0.000000
0.000000
0.000000
0.000000
1.000000
0.000000
0.000000
45.000000
0.000000

2
0.400000
0.000000
0.000000
0.000000
0.000000
0.000000
0.000000
-28.000000
0.500000
45.000000
0.000000
0.000000
0.500000
45.000000
45.000000
0.000000
0.000000
0.000000
0.000000
0.000000
45.000000
0.000000
1.000000
0.000000
0.000000
0.000000
45.000000

3
0.600000
0.000000
0.000000
0.000000
0.000000
0.000000
0.000000
0.000000
0.500000
0.000000
0.000000
0.000000
0.500000
0.000000
0.000000
0.000000
0.000000
0.000000
0.000000
0.000000
0.000000
0.000000
0.000000
0.000000
0.000000
0.000000
0.000000

